<?xml version="1.0" encoding="UTF-8" standalone="no"?>
<!-- Created with Inkscape (http://www.inkscape.org/) -->

<svg
   xmlns:dc="http://purl.org/dc/elements/1.1/"
   xmlns:cc="http://creativecommons.org/ns#"
   xmlns:rdf="http://www.w3.org/1999/02/22-rdf-syntax-ns#"
   xmlns:svg="http://www.w3.org/2000/svg"
   xmlns="http://www.w3.org/2000/svg"
   xmlns:sodipodi="http://sodipodi.sourceforge.net/DTD/sodipodi-0.dtd"
   xmlns:inkscape="http://www.inkscape.org/namespaces/inkscape"
   width="744.09448819"
   height="1052.3622047"
   id="svg2"
   version="1.1"
   inkscape:version="0.48.2 r9819"
   sodipodi:docname="tiles.svg">
  <defs
     id="defs4" />
  <sodipodi:namedview
     id="base"
     pagecolor="#ffffff"
     bordercolor="#666666"
     borderopacity="1.0"
     inkscape:pageopacity="0.0"
     inkscape:pageshadow="2"
     inkscape:zoom="1.3173144"
     inkscape:cx="270.07416"
     inkscape:cy="465.18182"
     inkscape:document-units="px"
     inkscape:current-layer="layer1"
     showgrid="false"
     inkscape:window-width="1483"
     inkscape:window-height="888"
     inkscape:window-x="65"
     inkscape:window-y="27"
     inkscape:window-maximized="0"
     showguides="true"
     inkscape:guide-bbox="true" />
  <metadata
     id="metadata7">
    <rdf:RDF>
      <cc:Work
         rdf:about="">
        <dc:format>image/svg+xml</dc:format>
        <dc:type
           rdf:resource="http://purl.org/dc/dcmitype/StillImage" />
        <dc:title></dc:title>
      </cc:Work>
    </rdf:RDF>
  </metadata>
  <g
     inkscape:label="Layer 1"
     inkscape:groupmode="layer"
     id="layer1">
    <rect
       style="fill:#0000ff;fill-opacity:0.19607843;fill-rule:evenodd;stroke:none"
       id="rect2987"
       width="71.554176"
       height="71.554176"
       x="863.35046"
       y="548.38257"
       transform="matrix(0.8944272,0.44721358,-0.8944272,0.44721358,0,0)" />
    <rect
       transform="matrix(0.8944272,0.44721358,-0.8944272,0.44721358,0,0)"
       y="506.0871"
       x="715.9093"
       height="71.554176"
       width="71.554176"
       id="rect3798"
       style="fill:#00ff00;fill-opacity:0.19607843;fill-rule:evenodd;stroke:none" />
    <rect
       style="fill:#ff0000;fill-opacity:0.19607843;fill-rule:evenodd;stroke:none"
       id="rect3800"
       width="71.554176"
       height="71.554176"
       x="804.84827"
       y="401.33661"
       transform="matrix(0.8944272,0.44721358,-0.8944272,0.44721358,0,0)" />
    <rect
       style="fill:#ffff00;fill-opacity:0.19607843;fill-rule:evenodd;stroke:none"
       id="rect3802"
       width="71.554176"
       height="71.554176"
       x="620.64569"
       y="386.3158"
       transform="matrix(0.89442719,0.4472136,-0.89442719,0.4472136,0,0)" />
    <rect
       transform="matrix(0.8944272,-0.44721358,-0.8944272,-0.44721358,0,0)"
       y="-789.0163"
       x="-381.51715"
       height="71.554176"
       width="71.554176"
       id="rect3804"
       style="fill:#000000;fill-opacity:0.58823529;fill-rule:evenodd;stroke:none" />
    <rect
       style="fill:#ff00ff;fill-opacity:0.19607843;fill-rule:evenodd;stroke:none"
       id="rect3806"
       width="71.554176"
       height="71.554176"
       x="587.83704"
       y="506.08707"
       transform="matrix(0.89442719,0.44721359,-0.89442719,0.44721359,0,0)" />
    <rect
       transform="matrix(0.8944272,0.44721358,-0.8944272,0.44721358,0,0)"
       y="627.04413"
       x="724.60565"
       height="71.554176"
       width="71.554176"
       id="rect3808"
       style="fill:#00ffff;fill-opacity:0.19607843;fill-rule:evenodd;stroke:none" />
    <rect
       style="fill:#ffffff;fill-opacity:0.05882353;fill-rule:evenodd;stroke:none"
       id="rect3757"
       width="71.554176"
       height="71.554176"
       x="-528.13391"
       y="-1005.6527"
       transform="matrix(0.8944272,-0.44721358,-0.8944272,-0.44721358,0,0)" />
  </g>
</svg>
